<svg width="18" height="33" viewBox="0 0 18 33" fill="none" xmlns="http://www.w3.org/2000/svg">
<path fill-rule="evenodd" clip-rule="evenodd" d="M15.7509 16.6982L0.939453 1.8868L2.00011 0.826136L17.8722 16.6982L2.00011 32.5703L0.939453 31.5097L15.7509 16.6982Z" fill="white"/>
</svg>
