<svg width="18" height="33" viewBox="0 0 18 33" fill="none" xmlns="http://www.w3.org/2000/svg">
<path fill-rule="evenodd" clip-rule="evenodd" d="M3.06089 16.6982L17.8723 1.8868L16.8117 0.826136L0.939566 16.6982L16.8117 32.5703L17.8723 31.5097L3.06089 16.6982Z" fill="white"/>
</svg>
